simulation/qsim/Mod6.msim.vcd
$comment
	File created using the following command:
		vcd file Mod6.msim.vcd -direction
$end
$date
	Wed Jan 25 21:21:39 2023
$end
$version
	ModelSim Version 10.1d
$end
$timescale
	1ps
$end
$scope module Mod6_vlg_vec_tst $end
$var reg 1 ! Entrada $end
$var wire 1 " Q0 $end
$var wire 1 # Q1 $end
$var wire 1 $ Q2 $end
$var wire 1 % sampler $end
$scope module i1 $end
$var wire 1 & gnd $end
$var wire 1 ' vcc $end
$var wire 1 ( unknown $end
$var tri1 1 ) devclrn $end
$var tri1 1 * devpor $end
$var tri1 1 + devoe $end
$var wire 1 , Q0~output_o $end
$var wire 1 - Q1~output_o $end
$var wire 1 . Q2~output_o $end
$var wire 1 / Entrada~input_o $end
$var wire 1 0 inst~0_combout $end
$var wire 1 1 inst~feeder_combout $end
$var wire 1 2 inst1~0_combout $end
$var wire 1 3 inst1~q $end
$var wire 1 4 inst2~0_combout $end
$var wire 1 5 inst2~q $end
$var wire 1 6 inst6~combout $end
$var wire 1 7 inst~q $end
$upscope $end
$upscope $end
$enddefinitions $end
#0
$dumpvars
0!
0"
0#
0$
x%
0&
1'
x(
1)
1*
1+
0,
0-
0.
0/
10
11
12
03
14
05
06
07
$end
#5000
1!
1/
0%
#10000
0!
0/
1%
17
00
1,
1"
01
#15000
1!
1/
0%
#20000
0!
0/
1%
07
10
0,
0"
11
13
02
1-
1#
#25000
1!
1/
0%
#30000
0!
0/
1%
17
00
1,
1"
01
#35000
1!
1/
0%
#40000
0!
0/
1%
07
10
0,
0"
11
03
12
0-
0#
15
04
1.
1$
#45000
1!
1/
0%
#50000
0!
0/
1%
17
00
1,
1"
01
#55000
1!
1/
0%
#60000
0!
0/
1%
07
10
0,
0"
11
13
16
02
1-
1#
03
05
06
12
14
0-
0.
0#
0$
#65000
1!
1/
0%
#70000
0!
0/
1%
17
00
1,
1"
01
#75000
1!
1/
0%
#80000
0!
0/
1%
07
10
0,
0"
11
13
02
1-
1#
#85000
1!
1/
0%
#90000
0!
0/
1%
17
00
1,
1"
01
#95000
1!
1/
0%
#100000
0!
0/
1%
07
10
0,
0"
11
03
12
0-
0#
15
04
1.
1$
#105000
1!
1/
0%
#110000
0!
0/
1%
17
00
1,
1"
01
#115000
1!
1/
0%
#120000
0!
0/
1%
07
10
0,
0"
11
13
16
02
1-
1#
03
05
06
12
14
0-
0.
0#
0$
#125000
1!
1/
0%
#130000
0!
0/
1%
17
00
1,
1"
01
#135000
1!
1/
0%
#140000
0!
0/
1%
07
10
0,
0"
11
13
02
1-
1#
#145000
1!
1/
0%
#150000
0!
0/
1%
17
00
1,
1"
01
#155000
1!
1/
0%
#160000
0!
0/
1%
07
10
0,
0"
11
03
12
0-
0#
15
04
1.
1$
#165000
1!
1/
0%
#170000
0!
0/
1%
17
00
1,
1"
01
#175000
1!
1/
0%
#180000
0!
0/
1%
07
10
0,
0"
11
13
16
02
1-
1#
03
05
06
12
14
0-
0.
0#
0$
#185000
1!
1/
0%
#190000
0!
0/
1%
17
00
1,
1"
01
#195000
1!
1/
0%
#200000
0!
0/
1%
07
10
0,
0"
11
13
02
1-
1#
#205000
1!
1/
0%
#210000
0!
0/
1%
17
00
1,
1"
01
#215000
1!
1/
0%
#220000
0!
0/
1%
07
10
0,
0"
11
03
12
0-
0#
15
04
1.
1$
#225000
1!
1/
0%
#230000
0!
0/
1%
17
00
1,
1"
01
#235000
1!
1/
0%
#240000
0!
0/
1%
07
10
0,
0"
11
13
16
02
1-
1#
03
05
06
12
14
0-
0.
0#
0$
#245000
1!
1/
0%
#250000
0!
0/
1%
17
00
1,
1"
01
#255000
1!
1/
0%
#260000
0!
0/
1%
07
10
0,
0"
11
13
02
1-
1#
#265000
1!
1/
0%
#270000
0!
0/
1%
17
00
1,
1"
01
#275000
1!
1/
0%
#280000
0!
0/
1%
07
10
0,
0"
11
03
12
0-
0#
15
04
1.
1$
#285000
1!
1/
0%
#290000
0!
0/
1%
17
00
1,
1"
01
#295000
1!
1/
0%
#300000
0!
0/
1%
07
10
0,
0"
11
13
16
02
1-
1#
03
05
06
12
14
0-
0.
0#
0$
#305000
1!
1/
0%
#310000
0!
0/
1%
17
00
1,
1"
01
#315000
1!
1/
0%
#320000
0!
0/
1%
07
10
0,
0"
11
13
02
1-
1#
#325000
1!
1/
0%
#330000
0!
0/
1%
17
00
1,
1"
01
#335000
1!
1/
0%
#340000
0!
0/
1%
07
10
0,
0"
11
03
12
0-
0#
15
04
1.
1$
#345000
1!
1/
0%
#350000
0!
0/
1%
17
00
1,
1"
01
#355000
1!
1/
0%
#360000
0!
0/
1%
07
10
0,
0"
11
13
16
02
1-
1#
03
05
06
12
14
0-
0.
0#
0$
#365000
1!
1/
0%
#370000
0!
0/
1%
17
00
1,
1"
01
#375000
1!
1/
0%
#380000
0!
0/
1%
07
10
0,
0"
11
13
02
1-
1#
#385000
1!
1/
0%
#390000
0!
0/
1%
17
00
1,
1"
01
#395000
1!
1/
0%
#400000
0!
0/
1%
07
10
0,
0"
11
03
12
0-
0#
15
04
1.
1$
#405000
1!
1/
0%
#410000
0!
0/
1%
17
00
1,
1"
01
#415000
1!
1/
0%
#420000
0!
0/
1%
07
10
0,
0"
11
13
16
02
1-
1#
03
05
06
12
14
0-
0.
0#
0$
#425000
1!
1/
0%
#430000
0!
0/
1%
17
00
1,
1"
01
#435000
1!
1/
0%
#440000
0!
0/
1%
07
10
0,
0"
11
13
02
1-
1#
#445000
1!
1/
0%
#450000
0!
0/
1%
17
00
1,
1"
01
#455000
1!
1/
0%
#460000
0!
0/
1%
07
10
0,
0"
11
03
12
0-
0#
15
04
1.
1$
#465000
1!
1/
0%
#470000
0!
0/
1%
17
00
1,
1"
01
#475000
1!
1/
0%
#480000
0!
0/
1%
07
10
0,
0"
11
13
16
02
1-
1#
03
05
06
12
14
0-
0.
0#
0$
#485000
1!
1/
0%
#490000
0!
0/
1%
17
00
1,
1"
01
#495000
1!
1/
0%
#500000
0!
0/
1%
07
10
0,
0"
11
13
02
1-
1#
#505000
1!
1/
0%
#510000
0!
0/
1%
17
00
1,
1"
01
#515000
1!
1/
0%
#520000
0!
0/
1%
07
10
0,
0"
11
03
12
0-
0#
15
04
1.
1$
#525000
1!
1/
0%
#530000
0!
0/
1%
17
00
1,
1"
01
#535000
1!
1/
0%
#540000
0!
0/
1%
07
10
0,
0"
11
13
16
02
1-
1#
03
05
06
12
14
0-
0.
0#
0$
#545000
1!
1/
0%
#550000
0!
0/
1%
17
00
1,
1"
01
#555000
1!
1/
0%
#560000
0!
0/
1%
07
10
0,
0"
11
13
02
1-
1#
#565000
1!
1/
0%
#570000
0!
0/
1%
17
00
1,
1"
01
#575000
1!
1/
0%
#580000
0!
0/
1%
07
10
0,
0"
11
03
12
0-
0#
15
04
1.
1$
#585000
1!
1/
0%
#590000
0!
0/
1%
17
00
1,
1"
01
#595000
1!
1/
0%
#600000
0!
0/
1%
07
10
0,
0"
11
13
16
02
1-
1#
03
05
06
12
14
0-
0.
0#
0$
#605000
1!
1/
0%
#610000
0!
0/
1%
17
00
1,
1"
01
#615000
1!
1/
0%
#620000
0!
0/
1%
07
10
0,
0"
11
13
02
1-
1#
#625000
1!
1/
0%
#630000
0!
0/
1%
17
00
1,
1"
01
#635000
1!
1/
0%
#640000
0!
0/
1%
07
10
0,
0"
11
03
12
0-
0#
15
04
1.
1$
#645000
1!
1/
0%
#650000
0!
0/
1%
17
00
1,
1"
01
#655000
1!
1/
0%
#660000
0!
0/
1%
07
10
0,
0"
11
13
16
02
1-
1#
03
05
06
12
14
0-
0.
0#
0$
#665000
1!
1/
0%
#670000
0!
0/
1%
17
00
1,
1"
01
#675000
1!
1/
0%
#680000
0!
0/
1%
07
10
0,
0"
11
13
02
1-
1#
#685000
1!
1/
0%
#690000
0!
0/
1%
17
00
1,
1"
01
#695000
1!
1/
0%
#700000
0!
0/
1%
07
10
0,
0"
11
03
12
0-
0#
15
04
1.
1$
#705000
1!
1/
0%
#710000
0!
0/
1%
17
00
1,
1"
01
#715000
1!
1/
0%
#720000
0!
0/
1%
07
10
0,
0"
11
13
16
02
1-
1#
03
05
06
12
14
0-
0.
0#
0$
#725000
1!
1/
0%
#730000
0!
0/
1%
17
00
1,
1"
01
#735000
1!
1/
0%
#740000
0!
0/
1%
07
10
0,
0"
11
13
02
1-
1#
#745000
1!
1/
0%
#750000
0!
0/
1%
17
00
1,
1"
01
#755000
1!
1/
0%
#760000
0!
0/
1%
07
10
0,
0"
11
03
12
0-
0#
15
04
1.
1$
#765000
1!
1/
0%
#770000
0!
0/
1%
17
00
1,
1"
01
#775000
1!
1/
0%
#780000
0!
0/
1%
07
10
0,
0"
11
13
16
02
1-
1#
03
05
06
12
14
0-
0.
0#
0$
#785000
1!
1/
0%
#790000
0!
0/
1%
17
00
1,
1"
01
#795000
1!
1/
0%
#800000
0!
0/
1%
07
10
0,
0"
11
13
02
1-
1#
#805000
1!
1/
0%
#810000
0!
0/
1%
17
00
1,
1"
01
#815000
1!
1/
0%
#820000
0!
0/
1%
07
10
0,
0"
11
03
12
0-
0#
15
04
1.
1$
#825000
1!
1/
0%
#830000
0!
0/
1%
17
00
1,
1"
01
#835000
1!
1/
0%
#840000
0!
0/
1%
07
10
0,
0"
11
13
16
02
1-
1#
03
05
06
12
14
0-
0.
0#
0$
#845000
1!
1/
0%
#850000
0!
0/
1%
17
00
1,
1"
01
#855000
1!
1/
0%
#860000
0!
0/
1%
07
10
0,
0"
11
13
02
1-
1#
#865000
1!
1/
0%
#870000
0!
0/
1%
17
00
1,
1"
01
#875000
1!
1/
0%
#880000
0!
0/
1%
07
10
0,
0"
11
03
12
0-
0#
15
04
1.
1$
#885000
1!
1/
0%
#890000
0!
0/
1%
17
00
1,
1"
01
#895000
1!
1/
0%
#900000
0!
0/
1%
07
10
0,
0"
11
13
16
02
1-
1#
03
05
06
12
14
0-
0.
0#
0$
#905000
1!
1/
0%
#910000
0!
0/
1%
17
00
1,
1"
01
#915000
1!
1/
0%
#920000
0!
0/
1%
07
10
0,
0"
11
13
02
1-
1#
#925000
1!
1/
0%
#930000
0!
0/
1%
17
00
1,
1"
01
#935000
1!
1/
0%
#940000
0!
0/
1%
07
10
0,
0"
11
03
12
0-
0#
15
04
1.
1$
#945000
1!
1/
0%
#950000
0!
0/
1%
17
00
1,
1"
01
#955000
1!
1/
0%
#960000
0!
0/
1%
07
10
0,
0"
11
13
16
02
1-
1#
03
05
06
12
14
0-
0.
0#
0$
#965000
1!
1/
0%
#970000
0!
0/
1%
17
00
1,
1"
01
#975000
1!
1/
0%
#980000
0!
0/
1%
07
10
0,
0"
11
13
02
1-
1#
#985000
1!
1/
0%
#990000
0!
0/
1%
17
00
1,
1"
01
#995000
1!
1/
0%
